{
    "name": "polymath",
    "description": "A Programming stack for Cross-Domain Acceleration",
    "version": "0.1.0",
    "author": "John Doe",
    "author_email": "john.doe@none.com",
    "license": "License :: OSI Approved :: Apache Software License",
    "classifiers": [
        "Development Status :: 3 - Alpha",
        "Programming Language :: Python :: 3"
    ],
    "url": "https://bitbucket.org/polymath-micro/polymath.micro",
    "python_requires": ">=3.6.0"
}